Committee Meeting 12/11
…
Missing Cases

MIDUS 1

Table: Total and percent missing on each variable

## # A tibble: 21 x 3
##    variable             n_miss pct_miss
##    <chr>                 <int>    <dbl>
##  1 aHHIncome               998     14.0
##  2 aCamEverOtherHeal       957     13.5
##  3 aRace                   932     13.1
##  4 aCamEverHomeopathy      858     12.1
##  5 aCamEverMassage         845     11.9
##  6 aCamEverPray            845     11.9
##  7 aCamEverSpiritHeal      842     11.8
##  8 aCamEverHerbTherapy     839     11.8
##  9 aCamEverMegaVitamins    839     11.8
## 10 aCamEverImageTech       838     11.8
## # ... with 11 more rows
…
